{
   "results" : [
      {
         "address_components" : [
            {
               "long_name" : "10",
               "short_name" : "10",
               "types" : [ "street_number" ]
            },
            {
               "long_name" : "Laserkatu",
               "short_name" : "Laserkatu",
               "types" : [ "route" ]
            },
            {
               "long_name" : "Lappeenranta",
               "short_name" : "Lappeenranta",
               "types" : [ "administrative_area_level_3", "political" ]
            },
            {
               "long_name" : "Finland",
               "short_name" : "FI",
               "types" : [ "country", "political" ]
            },
            {
               "long_name" : "53850",
               "short_name" : "53850",
               "types" : [ "postal_code" ]
            }
         ],
         "formatted_address" : "Laserkatu 10, 53850 Lappeenranta, Finland",
         "geometry" : {
            "location" : {
               "lat" : 61.06489029999999,
               "lng" : 28.09481040
            },
            "location_type" : "ROOFTOP",
            "viewport" : {
               "northeast" : {
                  "lat" : 61.06623928029151,
                  "lng" : 28.09615938029151
               },
               "southwest" : {
                  "lat" : 61.06354131970849,
                  "lng" : 28.09346141970850
               }
            }
         },
         "postcode_localities" : [],
         "types" : [ "street_address" ]
      }
   ],
   "status" : "OK"
}
