{
   "results" : [
      {
         "address_components" : [
            {
               "long_name" : "Utsjoki",
               "short_name" : "Utsjoki",
               "types" : [ "locality", "political" ]
            },
            {
               "long_name" : "Utsjoki",
               "short_name" : "Utsjoki",
               "types" : [ "administrative_area_level_3", "political" ]
            },
            {
               "long_name" : "Finland",
               "short_name" : "FI",
               "types" : [ "country", "political" ]
            }
         ],
         "formatted_address" : "Utsjoki, Finland",
         "geometry" : {
            "location" : {
               "lat" : 69.90904650,
               "lng" : 27.02852970
            },
            "location_type" : "APPROXIMATE",
            "viewport" : {
               "northeast" : {
                  "lat" : 69.9128790,
                  "lng" : 27.04453710
               },
               "southwest" : {
                  "lat" : 69.90521330,
                  "lng" : 27.01252230
               }
            }
         },
         "postcode_localities" : [],
         "types" : [ "locality", "political" ]
      }
   ],
   "status" : "OK"
}
